81638    501  <density_g_per_cc>    -81437        81448  -81434     
81639    597  -0.92  -81437        81450  -81448    
81640    501  <density_g_per_cc>    -81438        81448  -81434    
81641    597  -0.92  -81438        81450  -81448   
81642    501  <density_g_per_cc>    -81439        81448  -81434    
81643    597  -0.92  -81439        81450  -81448    
81644    501  <density_g_per_cc>    -81440        81433  -81449    
81645    597  -0.92  -81440        81449  -81451    
81646    501  <density_g_per_cc>    -81441        81433  -81449    
81647    597  -0.92  -81441        81449  -81451    
81648    590  -2.52  -81416        81431  -81432    
81649    597  -0.92  -81413        81432  -81422   

81410     300     cz     <radius_1>         
81411     300     cz     0.87315       
81412     300     cz     <radius_2>        
81413     300     cz     0.70231          
81414     300     cz     0.635         
81415     300     cz     0.47625        
81416     300     cz     0.6985         
 